{
  "diagnosis": [
    {
      "id": 1,
      "caption": "Avg duration per visit (hours)",
      "variables": [
        {
          "item": "0.00 to 3.24",
          "value": 0.5,
          "scenario": true
        },
        {
          "item": "3.24 to 4.04",
          "value": 0.29824561403508776,
          "scenario": false
        },
        {
          "item": "4.04 to 7.59",
          "value": 0.20175438596491224,
          "scenario": true
        }
      ]
    },
    {
      "id": 2,
      "caption": "Visits to goal (%)",
      "variables": [
        {
          "item": "0 to 50",
          "value": 0.21509169038122788,
          "scenario": true
        },
        {
          "item": "50 to 80",
          "value": 0.16925131576661503,
          "scenario": false
        },
        {
          "item": "80 to 100",
          "value": 0.22242088504275964,
          "scenario": false
        },
        {
          "item": "Up Goal",
          "value": 0.3932361088093975,
          "scenario": true
        }
      ]
    }
  ],
  "scenario1": [
    {
      "id": 1,
      "caption": "Avg duration per visit (hours)",
      "variables": [
        {
          "item": "0.00 to 3.24",
          "value": 0.468929943658561,
          "scenario": true
        },
        {
          "item": "3.24 to 4.04",
          "value": 0.31849054530829496,
          "scenario": false
        },
        {
          "item": "4.04 to 7.59",
          "value": 0.21257951103314404,
          "scenario": true
        }
      ]
    },
    {
      "id": 2,
      "caption": "Visits to goal (%)",
      "variables": [
        {
          "item": "0 to 50",
          "value": 0.02832311743725292,
          "scenario": true
        },
        {
          "item": "50 to 80",
          "value": 0.5431323993005027,
          "scenario": false
        },
        {
          "item": "80 to 100",
          "value": 0.11152423357892373,
          "scenario": false
        },
        {
          "item": "Up Goal",
          "value": 0.31702024968332054,
          "scenario": true
        }
      ]
    }
  ],
  "scenario2": [
    {
      "id": 1,
      "caption": "Avg duration per visit (hours)",
      "variables": [
        {
          "item": "0.00 to 3.24",
          "value": 0.5105981439401129,
          "scenario": true
        },
        {
          "item": "3.24 to 4.04",
          "value": 0.2732628120235535,
          "scenario": false
        },
        {
          "item": "4.04 to 7.59",
          "value": 0.2161390440363335,
          "scenario": true
        }
      ]
    },
    {
      "id": 2,
      "caption": "Visits to goal (%)",
      "variables": [
        {
          "item": "0 to 50",
          "value": 0.4900080704170193,
          "scenario": true
        },
        {
          "item": "50 to 80",
          "value": 0.12584649565088238,
          "scenario": false
        },
        {
          "item": "80 to 100",
          "value": 0.09922837698040617,
          "scenario": false
        },
        {
          "item": "Up Goal",
          "value": 0.28491705695169206,
          "scenario": true
        }
      ]
    }
  ]
}
